Place,WeightClassKg,BodyweightKg,Age,Division,Name,Sex,Event,Equipment,Country,Squat1Kg,Squat2Kg,Squat3Kg,Best3SquatKg,Bench1Kg,Bench2Kg,Bench3Kg,Bench4Kg,Best3BenchKg,Deadlift1Kg,Deadlift2Kg,Deadlift3Kg,Best3DeadliftKg,TotalKg
1,52,51.4,,Open,Hideaki Inaba,M,SBD,Wraps,JPN,190,200,205,205,-102.5,-102.5,102.5,,102.5,220,-225,,220,527.5
2,52,51.7,,Open,Haruji Watanabe,M,SBD,Wraps,JPN,,,,145,,,,,102.5,,,,185,432.5
3,52,51.65,,Open,Juhani Niemi,M,SBD,Wraps,FIN,,,,150,,,,,100,,,,180,430
4,52,48.1,,Open,Nhadrinja Bhairo,M,SBD,Wraps,GBR,-152.5,-152.5,152.5,152.5,,,,,95,,,,175,422.5
5,52,51.15,,Open,Wayne Osborne,M,SBD,Wraps,CAN,,,,117.5,,,,,85,,,,170,372.5
6,52,51.7,,Open,Paul Edom,M,SBD,Wraps,AUS,,,,112.5,,,,,87.5,,,,150,350
1,56,55.15,18,Open,Lamar Gant,M,SBD,Wraps,USA,,,,155,,,,,120,232.5,-250,-250,232.5,507.5
2,56,55.2,,Open,Viljo Issakainen,M,SBD,Wraps,FIN,,,,162.5,,,,,95,,,,217.5,475
3,56,55.2,45,Open,Ken Thrush,M,SBD,Wraps,GBR,,,,162.5,,,,,80,,,,210,452.5
4,56,55.6,,Open,Harold Norville,M,SBD,Wraps,CAN,,,,160,,,,,97.5,,,,195,452.5
5,56,55.2,,Open,Maths Johansson,M,SBD,Wraps,SWE,,,,142.5,,,,,85,,,,170,397.5
6,56,55.25,,Open,Yoshio Shimada,M,SBD,Wraps,JPN,,,,140,,,,,100,,,,140,380
DQ,56,55.2,40,Open,Precious McKenzie,M,SBD,Wraps,GBR,,,,190,-125,-125,-125,,,,,,,
1,60,59.6,30,Open,Enrique Hernandez,M,SBD,Wraps,USA,200,,,200,142.5,,,,142.5,207.5,,,207.5,550
2,60,58.8,,Open,John Ambler,M,SBD,Wraps,GBR,,,,175,,,,,122.5,,,-245,222.5,520
3,60,59.1,,Open,Yrjö Haatanen,M,SBD,Wraps,FIN,,,,187.5,,,,,115,,,,215,517.5
4,60,58.4,,Open,Isao Konno,M,SBD,Wraps,JPN,,,,170,,,,,115,,,,225,510
5,60,59.4,,Open,Ove Nilsson,M,SBD,Wraps,SWE,,,,180,,,,,112.5,,,,212.5,505
6,60,59.25,,Open,A. Mwape,M,SBD,Wraps,ZAM,,,,155,,,,,90,,,,215,460
7,60,59.5,,Open,T. Wallace,M,SBD,Wraps,IRL,,,,132.5,,,,,92.5,,,,185,410
1,67.5,67.2,30,Open,Jack Welch,M,SBD,Wraps,USA,202.5,217.5,225,225,,160,-165,,160,240,255,-262.5,255,640
2,67.5,66.4,,Open,James Moir,M,SBD,Wraps,CAN,,,,190,,,,,152.5,,,,247.5,590
3,67.5,67.5,,Open,Raimo Välineva,M,SBD,Wraps,FIN,,,,180,,,,,112.5,237.5,250,265,265,557.5
4,67.5,65.9,,Open,Takeo Tanaka,M,SBD,Wraps,JPN,,,,180,,,,,137.5,,,,210,527.5
5,67.5,66.8,,Open,Dennis Atland,M,SBD,Wraps,SWE,,,,177.5,,,,,135,,,,210,522.5
6,67.5,66.4,,Open,Courtney Boyce,M,SBD,Wraps,AUS,,,,172.5,,,,,125,220,-237.5,-237.5,220,517.5
7,67.5,66.7,,Open,Bo Eklöf,M,SBD,Wraps,SWE,,,,172.5,,,,,120,,,,220,512.5
8,67.5,67.1,,Open,Bjørn Andreas Holmsen,M,SBD,Wraps,NOR,,,,167.5,,,,,115,,,,227.5,510
9,67.5,66.9,,Open,Kåre Holte,M,SBD,Wraps,NOR,,,,165,,,,,105,,,,230,500
10,67.5,64.5,,Open,Masayuki Yamamoto,M,SBD,Wraps,JPN,,,,140,,,,,127.5,,,,180,447.5
DQ,67.5,67,,Open,Mike Shaw,M,SBD,Wraps,GBR,-215,-215,-215,,,,,,,,,,,
DQ,67.5,65.9,,Open,R. Casale,M,SBD,Wraps,ZAM,,,,,,,,,,,,,,
1,75,74,30,Open,Walter Thomas,M,SBD,Wraps,USA,,272.5,,272.5,,,175,180,175,252.5,270,,270,717.5
2,75,74.3,,Open,Peter Fiore,M,SBD,Wraps,ZAM,,,,237.5,,,,,152.5,,,,257.5,647.5
3,75,74.25,,Open,Skúli Óskarsson,M,SBD,Wraps,ISL,,230,-242.5,230,,,,,130,,,,252.5,612.5
4,75,74.75,,Open,Ridger Chauvin,M,SBD,Wraps,CAN,,,,195,,,,,137.5,,,,267.5,600
5,75,74.4,,Open,Lars Buckland,M,SBD,Wraps,SWE,,,,200,,,,,160,,,,222.5,582.5
6,75,73.4,,Open,Bruce Waddell,M,SBD,Wraps,AUS,,,,212.5,,,,,117.5,,,,250,580
7,75,73.8,,Open,Robert Jeha,M,SBD,Wraps,AUS,,,,172.5,,,,,145,,,,240,557.5
8,75,74.5,,Open,Gunnar Skogstad,M,SBD,Wraps,NOR,,,,187.5,,,,,115,,,,220,522.5
9,75,74.5,,Open,Gunnar Lorentzen,M,SBD,Wraps,NOR,,,,170,,,,,115,,,,230,515
10,75,71.3,,Open,J. Chiwanga,M,SBD,Wraps,ZAM,,,,175,,,,,115,,,,222.5,512.5
11,75,72.9,,Open,B. Fennessey,M,SBD,Wraps,IRL,,,,172.5,,,,,110,,,,217.5,500
DQ,75,74,,Open,Degawa,M,SBD,Wraps,JPN,,,,200,,,,,167.5,,,,,
DQ,75,72.5,,Open,Savvides,M,SBD,Wraps,CYP,,,,90,,,,,135,,,,,
1,82.5,82.5,41,Open,Ron Collins,M,SBD,Wraps,GBR,-290,290,-297.5,290,180,190,192.5,,192.5,282.5,305,317.5,317.5,800
2,82.5,81.35,30,Open,Dennis Wright,M,SBD,Wraps,USA,292.5,-300,-300,292.5,182.5,-192.5,-192.5,,182.5,267.5,-282.5,-292.5,267.5,742.5
3,82.5,82.45,,Open,Unto Honkonen,M,SBD,Wraps,FIN,,,,232.5,,,,,155,,,,290,677.5
4,82.5,82.4,,Open,Lars Björck,M,SBD,Wraps,SWE,,,,230,,,,,160,,,,262.5,652.5
5,82.5,81.35,,Open,Per Buaroe,M,SBD,Wraps,NOR,,,,230,,,,,165,,,,250,645
6,82.5,81.3,,Open,Norman Jeha,M,SBD,Wraps,AUS,,,,195,,,,,165,,,,260,620
7,82.5,81.7,,Open,Arne Boe,M,SBD,Wraps,NOR,,,,190,,,,,150,,,,200,540
8,82.5,81.55,,Open,Ron Whiteway,M,SBD,Wraps,IRL,,,,190,,,,,107.5,,,,230,527.5
9,82.5,78.2,,Open,K. Kawaguchi,M,SBD,Wraps,JPN,,,,180,,,,,135,,,,210,525
1,90,90,,Open,Edward Ravenscroft,M,SBD,Wraps,USA,,,,277.5,,235,,,235,280,-300,,280,792.5
2,90,89.55,,Open,Barry O'Brien,M,SBD,Wraps,JAM,,,,270,,,,,172.5,295,312.5,-320,312.5,755
3,90,89.4,,Open,Eamon Toal,M,SBD,Wraps,GBR,,,,270,,,,,177.5,282.5,305,-312.5,305,752.5
4,90,89.7,,Open,Ray Yvander,M,SBD,Wraps,SWE,,,,255,,,,,160,,,,280,695
5,90,89.9,,Open,Ronald Modra,M,SBD,Wraps,AUS,,,,250,,,,,147.5,,,282.5,282.5,680
6,90,89.7,,Open,Gunnar Østby,M,SBD,Wraps,NOR,,,,232.5,,,,,185,,,,260,677.5
7,90,89.2,,Open,Ned Gvoich,M,SBD,Wraps,CAN,,,,232.5,,,,,145,,,,272.5,650
8,90,88.6,,Open,Norman May,M,SBD,Wraps,LUX,,,,205,,,,,160,,,,195,560
1,100,99.35,,Open,Larry Pacifico,M,SBD,Wraps,USA,-295,295,-315,295,237.5,250,-262.5,,250,320,-342.5,,320,865
2,100,99.35,,Open,Marwin Phillips,M,SBD,Wraps,USA,300,317.5,-342.5,317.5,210,-217.5,-217.5,,210,272.5,282.5,-290,282.5,810
3,100,99.35,,Open,Raimo Halvorsén,M,SBD,Wraps,FIN,,,,250,,,,,215,,,,297.5,762.5
4,100,99.6,,Open,Reidar Steen,M,SBD,Wraps,NOR,,,,245,,,,,190,,,,282.5,717.5
5,100,99.65,,Open,Shoei Nakamura,M,SBD,Wraps,JPN,,,,280,,,,,160,,,,230,670
6,100,94.65,,Open,Charles Madondo,M,SBD,Wraps,ZAM,,,,187.5,,,,,95,,,,220,502.5
DQ,100,100,,Open,John Kallevik,M,SBD,Wraps,NOR,,,,245,,,,,145,,,,,
DQ,100,99.35,,Open,Paul Jordan,M,SBD,Wraps,GBR,-272.5,-272.5,-272.5,,,,,,,,,,,
1,110,108.8,,Open,Doug Young,M,SBD,Wraps,USA,300,317.5,-327.5,317.5,230,240,-250,,240,307.5,317.5,-350,317.5,875
2,110,109.6,,Open,David Carter,M,SBD,Wraps,GBR,320,-342.5,-342.5,320,,,,,172.5,335,347.5,-365,347.5,840
3,110,108.85,,Open,Hannu Saarelainen,M,SBD,Wraps,FIN,,297.5,-302.5,297.5,,,220,,220,,,,320,837.5
4,110,108.1,,Open,Ulf Morin,M,SBD,Wraps,SWE,,,,285,,,,,205,,,,307.5,797.5
5,110,100.45,,Open,Jack,M,SBD,Wraps,CAN,,,,270,,,,,160,,,,307.5,737.5
6,110,108.45,50,Open,Thore Wilkstrom,M,SBD,Wraps,SWE,,,,250,,,,,185,,,,280,715
7,110,107.55,,Open,Alan Marshall,M,SBD,Wraps,AUS,,,,250,,,,,172.5,,,,275,697.5
1,110+,157.8,,Open,Don Reinhoudt,M,SBD,Wraps,USA,377.5,400,,400,252.5,-282.5,-282.5,,252.5,352.5,365,380,380,1032.5
2,110+,,,Open,John Phillip,M,SBD,Wraps,TGA,-295,295,305,305,-227.5,227.5,-237.5,,227.5,295,305,-317.5,305,837.5
3,110+,120.3,,Open,John Alderson,M,SBD,Wraps,GBR,,,300,300,,,210,,210,295,317.5,-327.5,317.5,827.5
4,110+,128.6,,Open,Sven Huberth,M,SBD,Wraps,SWE,,,,270,,,,,210,,,,300,780
5,110+,127.4,,Open,Gerhard Duprie,M,SBD,Wraps,NED,,,,252.5,,,,,185,,,,270,707.5
