Name,Sex,Equipment,BodyweightKg,WeightClassKg,AgeClass,Division,Bench1Kg,Bench2Kg,Bench3Kg,Best3BenchKg,TotalKg,Event,Place
Jake Richardson,M,Raw,57,59,0-15.5,M-C,55,-60,62.5,62.5,62.5,B,1
Callum Goddard,M,Raw,81.3,83,0-22.5,M-C,142.5,150,155,155,155,B,1
Lee Meachen,M,Raw,76.5,83,49.5-58.5,M-C,142.5,150,-155,150,150,B,2
Mick Amey,M,Single-ply,82.2,83,59.5-68.5,M-E,105,-117.5,-117.5,105,105,B,1
Steve Richardson,M,Raw,88.6,93,39.5-48.5,M-C,145,150,160,160,160,B,1
Sonny Singh,M,Raw,92.8,93,0-19.5,M-C,-125,132.5,-137.5,132.5,132.5,B,2
James Zhao,M,Raw,89.7,93,0-22.5,M-C,112.5,117.5,-120,117.5,117.5,B,3
Adam Rochussen,M,Raw,93,93,0-22.5,M-C,112.5,-117.5,-117.5,112.5,112.5,B,4
Geoff Bethell,M,Raw,101.8,105,39.5-48.5,M-C,150,160,165,165,165,B,1
Wilberth Solano,M,Raw,95.7,105,0-22.5,M-C,130,135,-140,135,135,B,2
Steve Bullimore,M,Raw,101.1,105,39.5-48.5,M-C,130,135,-140,135,135,B,3
Dave Read,M,Raw,102,105,49.5-58.5,M-C,115,122.5,-130,122.5,122.5,B,4
Pinda Singh,M,Single-ply,115.1,120,0-22.5,M-E,280,-288,-288,280,280,B,1
