Name,Team,Sex,Division,BodyweightKg,WeightClassKg,Squat1Kg,Squat2Kg,Squat3Kg,Best3SquatKg,Bench1Kg,Bench2Kg,Bench3Kg,Best3BenchKg,Deadlift1Kg,Deadlift2Kg,Deadlift3Kg,Best3DeadliftKg,TotalKg,Equipment,Event,Place
Luis Corbo,SE,M,M-SJ,56.5,59,85,-90,-90,85,45,50,-55,50,120,125,-130,125,260,Raw,SBD,1
Liam Donnelly,NI,M,M-SJ,55.6,59,70,80,-82.5,80,45,-52.5,-52.5,45,105,-115,-115,105,230,Raw,SBD,2
Ploutis Koumi,WM,M,M-SJ,62.9,66,140,150,-152.5,150,90,100,-102.5,100,190,200,-205,200,450,Raw,SBD,1
Declan Zimmermann,WM,M,M-SJ,64.8,66,135,142.5,-150,142.5,75,80,82.5,82.5,165,175,185,185,410,Raw,SBD,2
Joe Sherwood,YNE,M,M-SJ,61,66,110,120,125,125,82.5,87.5,-90,87.5,142.5,150,155,155,367.5,Raw,SBD,3
Hasnain Aamir Ikram,Wales,M,M-SJ,74,74,175,186,-193,186,105,112.5,120,120,210,220,-231,220,526,Raw,SBD,1
Dan Sherman,YNE,M,M-SJ,73.3,74,175,185,192.5,192.5,95,100,102.5,102.5,205,220,-232.5,220,515,Raw,SBD,2
Jakub Zareba,NM,M,M-SJ,73.4,74,140,152.5,162.5,162.5,85,92.5,-100,92.5,190,200,-210,200,455,Raw,SBD,3
Benjamin Sugarman,EM,M,M-SJ,69.7,74,155,162.5,167.5,167.5,75,80,-85,80,190,200,-210,200,447.5,Raw,SBD,4
Lucas Sedgwick,SE,M,M-SJ,66.1,74,87.5,90,97.5,97.5,55,60,-65,60,105,112.5,-120,112.5,270,Raw,SBD,5
Ben Willis,YNE,M,M-SJ,80.1,83,195,202.5,-207.5,202.5,115,120,-122.5,120,240,250.5,-258,250.5,573,Raw,SBD,1
Charlie Hale,SE,M,M-SJ,81.5,83,180,187.5,192.5,192.5,110,115,120,120,217.5,230,-237.5,230,542.5,Raw,SBD,2
Jake Leach,SM,M,M-SJ,82,83,200,-205,205,205,112.5,117.5,-122.5,117.5,185,195,-200,195,517.5,Raw,SBD,3
Daniel Chivers,YNE,M,M-SJ,78,83,160,170,-175,170,100,107.5,-110,107.5,200,-210,-210,200,477.5,Raw,SBD,4
Marcus Raymond,SW,M,M-SJ,81.1,83,150,160,165,165,90,100,-102.5,100,185,195,200,200,465,Raw,SBD,5
George Turner,NM,M,M-SJ,89.1,93,197.5,-207.5,-207.5,197.5,117.5,127.5,132.5,132.5,207.5,217.5,227.5,227.5,557.5,Raw,SBD,1
Farris Collins,SW,M,M-SJ,91.3,93,180,190,202.5,202.5,125,-132.5,-132.5,125,215,222.5,-230,222.5,550,Raw,SBD,2
Ross Taggart,Scot,M,M-SJ,92.6,93,170,-182.5,182.5,182.5,115,-122.5,-127.5,115,190,200,210,210,507.5,Raw,SBD,3
Will Schuneman,Scot,M,M-SJ,89.6,93,152.5,160,165,165,100,110,117.5,117.5,190,200,207.5,207.5,490,Raw,SBD,4
Adam Hale,SW,M,M-SJ,88.5,93,160,165,172.5,172.5,-95,-100,-100,,170,180,190,190,,Raw,SBD,DQ
Sydney Boroch,SM,M,M-SJ,98,105,190,200,210,210,145,-155,155,155,230,-242.5,-242.5,230,595,Raw,SBD,1
Matthew Chivers,YNE,M,M-SJ,100.6,105,195,205,210,210,130,135,140,140,220,-230,-230,220,570,Raw,SBD,2
Charlie Bolton,SE,M,M-SJ,103.9,105,200,210,-215.5,210,110,117.5,122.5,122.5,210,220,-250,220,552.5,Raw,SBD,3
Kiern Stubbings,EM,M,M-SJ,102.8,105,180,190,195,195,117.5,122.5,127.5,127.5,192.5,202.5,207.5,207.5,530,Raw,SBD,4
Bradley May,SE,M,M-SJ,103,105,162.5,177.5,187.5,187.5,102.5,110,115,115,210,-227.5,227.5,227.5,530,Raw,SBD,5
Jack Johnson,SM,M,M-SJ,117.4,120,215,230,-240.5,230,165,175,-182.5,175,235,247.5,260,260,665,Raw,SBD,1
Jack Sadler,Wales,M,M-SJ,117.5,120,160,170,-172.5,170,-115,115,-120,115,177.5,192.5,-205,192.5,477.5,Raw,SBD,2
Ross Cartwright,WM,M,M-SJ,107.5,120,150,170,185,185,100,115,-120,115,140,160,170,170,470,Raw,SBD,3
Chris Allen,SW,M,M-J,57,59,117.5,125,130,130,100,105,107.5,107.5,170,175,182.5,182.5,420,Raw,SBD,1
Louie Pelicano,GL,M,M-J,58.4,59,120,130,140,140,97.5,-105.5,-105.5,97.5,160,-170,-185,160,397.5,Raw,SBD,2
Tom Hitchcock-Wyatt,GL,M,M-J,55.9,59,130,135,-140,135,60,65,70,70,130,140,-150,140,345,Raw,SBD,3
Jordan Lam,GL,M,M-J,65,66,167.5,177.5,185,185,112.5,120,125,125,205,220,232.5,232.5,542.5,Raw,SBD,1
Jack Suljevic,SW,M,M-J,65,66,175,182.5,-187.5,182.5,105,110,-115,110,230,237.5,-245,237.5,530,Raw,SBD,2
Nathaniel Shaw,SE,M,M-J,64.3,66,172.5,185,192.5,192.5,100,105,110,110,207.5,220,-232.5,220,522.5,Raw,SBD,3
David Carlton,NI,M,M-J,64.7,66,160,170,-172.5,170,-112.5,117.5,122.5,122.5,212.5,222.5,-227.5,222.5,515,Raw,SBD,4
John Phillips,SW,M,M-J,66,66,170,-180,180,180,112.5,117.5,-120,117.5,197.5,207.5,212.5,212.5,510,Raw,SBD,5
Amrik Mehta,SW,M,M-J,62.3,66,162.5,167.5,175,175,100,107.5,112.5,112.5,200,207.5,-210,207.5,495,Raw,SBD,6
Jamie Jones,SM,M,M-J,65.2,66,160,167.5,172.5,172.5,105,110,112.5,112.5,210,-215,,210,495,Raw,SBD,7
Tom Chang,NW,M,M-J,64.1,66,155,160,162.5,162.5,110,117.5,-122.5,117.5,200,210,-215,210,490,Raw,SBD,8
James McIlwaine,NI,M,M-J,66,66,190,197.5,-202.5,197.5,97.5,102.5,105,105,185,-192.5,-192.5,185,487.5,Raw,SBD,9
Kurtis Charnock,NW,M,M-J,61.5,66,165,170,175,175,105,-112.5,-112.5,105,-190,190,200,200,480,Raw,SBD,10
Junaid Ali,NW,M,M-J,66,66,145,152.5,157.5,157.5,87.5,95,,95,190,200,,200,452.5,Raw,SBD,11
Luke Wilkinson,SE,M,M-J,63.6,66,155,-162.5,-162.5,155,95,100,102.5,102.5,180,-185,-185,180,437.5,Raw,SBD,12
Zak Hardy,Scot,M,M-J,64.7,66,150,-157.5,-157.5,150,-102.5,107.5,110,110,145,155,170,170,430,Raw,SBD,13
Thomas Jeffcott,SW,M,M-J,64.2,66,130,140,145,145,75,80,82.5,82.5,-200,200,-205,200,427.5,Raw,SBD,14
Lee Chedumbrun,GL,M,M-J,64.6,66,117.5,125,130,130,85,90,-95,90,190,200,-205,200,420,Raw,SBD,15
James Duff,YNE,M,M-J,73.9,74,225,235,-240.5,235,130,135,-140,135,245,255,-262.5,255,625,Raw,SBD,1
Salman Khan,EM,M,M-J,73,74,205,212.5,-215,212.5,132.5,137.5,142.5,142.5,245,255.5,-260,255.5,610.5,Raw,SBD,2
Adil Khan,NW,M,M-J,72.9,74,190,200,205,205,132.5,137.5,140,140,235,247.5,-262.5,247.5,592.5,Raw,SBD,3
Tom Dunning,YNE,M,M-J,73.2,74,200,210,,210,122.5,127.5,130,130,220,230,235,235,575,Raw,SBD,4
Roger Nevares-Pykov,SE,M,M-J,74,74,180,-187.5,195,195,110,115,120,120,210,220,227.5,227.5,542.5,Raw,SBD,5
Omar Khan,Scot,M,M-J,72.4,74,177.5,-190,-192.5,177.5,112.5,117.5,-120,117.5,210,225,-235,225,520,Raw,SBD,6
Benjamin Cattermole,EM,M,M-J,72.1,74,165,175,180,180,117.5,-122.5,-122.5,117.5,200,-210,210,210,507.5,Raw,SBD,7
Declan Challoner,EM,M,M-J,72.8,74,152.5,162.5,170,170,100,105,-110,105,200,210,220,220,495,Raw,SBD,8
Aodhan Phillips-Lees,NW,M,M-J,71.3,74,167.5,177.5,182.5,182.5,-115,120,125,125,172.5,-182.5,-182.5,172.5,480,Raw,SBD,9
Owen Hubbard,Wales,M,M-J,82,83,225,240,250,250,180,192.5,-207.5,192.5,260,-280.5,-280.5,260,702.5,Raw,SBD,1
Daniel Worsley,YNE,M,M-J,79.9,83,205,210,-215,210,140,145,150,150,260,270,-280,270,630,Raw,SBD,2
Owen Lockwood,YNE,M,M-J,81.9,83,195,205,215,215,125,132.5,137.5,137.5,230,250,265,265,617.5,Raw,SBD,3
Erik Mata,GL,M,M-J,82,83,210,-220,222.5,222.5,137.5,-145,145,145,237.5,250,-257.5,250,617.5,Raw,SBD,4
Sidney Jules,EM,M,M-J,75.2,83,210,220,230,230,115,120,125,125,230,-245,245,245,600,Raw,SBD,5
Reece D'Alanno,EM,M,M-J,74.1,83,190,200,210,210,-125,130,-137.5,130,245,250,-255,250,590,Raw,SBD,6
Rino Shala,GL,M,M-J,82.2,83,190,197.5,205,205,120,127.5,132.5,132.5,225,240,-250,240,577.5,Raw,SBD,7
Philip Reid,NW,M,M-J,79.4,83,190,202.5,-207.5,202.5,-117.5,122.5,127.5,127.5,235,242.5,,242.5,572.5,Raw,SBD,8
Dan Ben-Chorin,SE,M,M-J,82.2,83,200,212.5,217.5,217.5,132.5,137.5,-140,137.5,217.5,-232.5,-232.5,217.5,572.5,Raw,SBD,9
Michael Giles,NW,M,M-J,82.7,83,190,202.5,-207.5,202.5,140,-145,-145,140,215,225,-252.5,225,567.5,Raw,SBD,10
Chris Sumner,SE,M,M-J,78.6,83,180,-190,-190,180,115,117.5,125,125,230,240,245,245,550,Raw,SBD,11
Ethan Brownlee,NI,M,M-J,82,83,170,182.5,192.5,192.5,105,110,115,115,220,230,237.5,237.5,545,Raw,SBD,12
Jack Kuhnert,SW,M,M-J,78.9,83,140,160,175,175,130,-140,140,140,200,220,-222.5,220,535,Raw,SBD,13
Matt Leonard,Wales,M,M-J,81.5,83,187.5,197.5,205,205,105,115,-120,115,192.5,202.5,212.5,212.5,532.5,Raw,SBD,14
Tom Ward,SW,M,M-J,80.7,83,170,180,-187.5,180,-107.5,117.5,122.5,122.5,212.5,225,-232.5,225,527.5,Raw,SBD,15
Adam Sawyers,YNE,M,M-J,80.2,83,187.5,197.5,200,200,95,102.5,105,105,212.5,,,212.5,517.5,Raw,SBD,16
James Phillips,NM,M,M-J,81.1,83,150,162.5,-180,162.5,110,115,-122.5,115,220,230,240,240,517.5,Raw,SBD,17
Michael Ellis,SM,M,M-J,75.8,83,-130,140,150,150,105,110,115,115,180,190,-200,190,455,Raw,SBD,18
Killian Wilson,SE,M,M-J,79.9,83,130,140,147.5,147.5,85,95,-100,95,180,195,205,205,447.5,Raw,SBD,19
Sion Hughes,Wales,M,M-J,91.7,93,250,262.5,275,275,150,160,165,165,260,275,285,285,725,Raw,SBD,1
Greg Lewis,WM,M,M-J,92.2,93,200,215,222.5,222.5,132.5,140,142.5,142.5,280,307.5,322.5,322.5,687.5,Raw,SBD,2
Devon Blackwood,NM,M,M-J,91.8,93,240,250,-260,250,150,160,165,165,250,270,-280,270,685,Raw,SBD,3
Sam Hinks,YNE,M,M-J,92.8,93,210,-220,-220,210,162.5,167.5,170.5,170.5,255,265,-272.5,265,645.5,Raw,SBD,4
Jack Gilmore,YNE,M,M-J,91.6,93,220,227.5,232.5,232.5,130,135,140,140,255,265,-272.5,265,637.5,Raw,SBD,5
Jordan Eastwood,YNE,M,M-J,92.6,93,200,210,-217.5,210,165,171,-175,171,235,250,-265,250,631,Raw,SBD,6
Sebastian Jedicke,Scot,M,M-J,91.6,93,200,210,217.5,217.5,140,150,-155,150,260,-275,,260,627.5,Raw,SBD,7
Charlie Smith,SE,M,M-J,90.2,93,220,-235,-235,220,-140,140,-150,140,260,-272.5,-272.5,260,620,Raw,SBD,8
Leon Holmes,EM,M,M-J,91,93,220,-230,-230,220,140,-150,-150,140,260,-270,-270,260,620,Raw,SBD,9
George Seeger,SE,M,M-J,93,93,195,205,212.5,212.5,125,130,-135,130,275,-290,-290,275,617.5,Raw,SBD,10
Sam Orange,YNE,M,M-J,91.9,93,210,220,-227.5,220,117.5,125,-130,125,255,270,,270,615,Raw,SBD,11
Benjamin Fisher,NM,M,M-J,90.1,93,205,212.5,-217.5,212.5,135,140,142.5,142.5,235,245,-250,245,600,Raw,SBD,12
Stefan Osman,GL,M,M-J,90.6,93,190,200,-210,200,130,137.5,-142.5,137.5,220,230,235,235,572.5,Raw,SBD,13
Reece Pearce,EM,M,M-J,91.8,93,192.5,205,-207.5,205,135,142.5,-147.5,142.5,225,-237.5,-237.5,225,572.5,Raw,SBD,14
Edmund Summers,SM,M,M-J,90.3,93,190,200,207.5,207.5,130,137.5,142.5,142.5,200,210,217.5,217.5,567.5,Raw,SBD,15
Jack Barber,SM,M,M-J,92.4,93,175,192.5,205,205,127.5,135,142.5,142.5,185,200,217.5,217.5,565,Raw,SBD,16
Josh Jones,SW,M,M-J,86.3,93,200,210,220,220,100,110,-115,110,210,230,-250,230,560,Raw,SBD,17
Sid Atkinson,GL,M,M-J,89.2,93,160,170,-177.5,170,130,137.5,-140,137.5,200,-210,210,210,517.5,Raw,SBD,18
Joe Thomas,NW,M,M-J,88.6,93,170,180,190,190,110,115,-117.5,115,190,205,-207.5,205,510,Raw,SBD,19
Thomas Brannick,NM,M,M-J,102.1,105,235,245,255,255,175,185,-187.5,185,272.5,285,292.5,292.5,732.5,Raw,SBD,1
Charlie Wade,SE,M,M-J,103.8,105,245,260,270,270,150,160,170,170,260,280,-287.5,280,720,Raw,SBD,2
Paul Bennett,YNE,M,M-J,103.5,105,227.5,242.5,250,250,142.5,162.5,167.5,167.5,260,280,300,300,717.5,Raw,SBD,3
Alexander Pierides,GL,M,M-J,101.2,105,235,250,257.5,257.5,155,167.5,170,170,247.5,262.5,-267.5,262.5,690,Raw,SBD,4
Kerrin Manley,SW,M,M-J,96.4,105,220,-222.5,-260,220,150,160,170,170,260,275,-285,275,665,Raw,SBD,5
Frankie Parks,SE,M,M-J,103.7,105,240,255,-260,255,145,150,-155,150,240,-260,260,260,665,Raw,SBD,6
Harry O'Neilly,SE,M,M-J,98.8,105,195,207.5,-217.5,207.5,155,-165,165,165,240,252.5,257.5,257.5,630,Raw,SBD,7
Ewan Cunliffe,NW,M,M-J,102.5,105,-200,210,215,215,152.5,162.5,-167.5,162.5,220,-240,240,240,617.5,Raw,SBD,8
Will Harding,EM,M,M-J,98.2,105,190,202.5,-207.5,202.5,135,145,150,150,240,262.5,-272.5,262.5,615,Raw,SBD,9
Peter Tolmie,Scot,M,M-J,102.5,105,200,212.5,220,220,120,125,130,130,235,250,265,265,615,Raw,SBD,10
Ben Deller-Rust,NW,M,M-J,102.8,105,180,200,210,210,130,-140,-140,130,265,-285,-285,265,605,Raw,SBD,11
Fred Vassie,SE,M,M-J,104,105,200,210,,210,125,-132.5,132.5,132.5,220,240,250,250,592.5,Raw,SBD,12
Daniel Willgoss,EM,M,M-J,95.7,105,-185,185,205,205,125,135,137.5,137.5,215,225,230,230,572.5,Raw,SBD,13
Oliver Golden,NW,M,M-J,103.4,105,170,-180,180,180,165,-172.5,-172.5,165,185,200,215,215,560,Raw,SBD,14
Alex Shortland,YNE,M,M-J,103.4,105,160,170,180,180,120,-130,-130,120,220,230,-240,230,530,Raw,SBD,15
Mark Macqueen,Scot,M,M-J,118.3,120,260,275,285,285,150,160,170,170,287.5,302.5,317.5,317.5,772.5,Raw,SBD,1
Shaun Kelly,YNE,M,M-J,118.3,120,250,260,-270,260,155,165,-170,165,280,300,-310,300,725,Raw,SBD,2
James Hetherington,SM,M,M-J,117.1,120,220,230,240,240,-135,135,142.5,142.5,265,270,-280,270,652.5,Raw,SBD,3
Frazer Pennington,NW,M,M-J,118.3,120,255,-270,-270,255,140,152.5,-157.5,152.5,225,235,242.5,242.5,650,Raw,SBD,4
Shane Flowers,SW,M,M-J,116,120,200,210,-215,210,150,157.5,162.5,162.5,250,260,265,265,637.5,Raw,SBD,5
Tommy Bebb,SW,M,M-J,117.1,120,215,222.5,-225,222.5,147.5,152.5,157.5,157.5,242.5,252.5,-257.5,252.5,632.5,Raw,SBD,6
Balal Ahmed,EM,M,M-J,107.9,120,190,-215,215,215,140,-150,-150,140,230,275,-280,275,630,Raw,SBD,7
Paul Montgomery,YNE,M,M-J,108.6,120,200,210,-220,210,150,-160,-160,150,230,240,250,250,610,Raw,SBD,8
Nicholas Mellor,SW,M,M-J,120,120,-220,220,230,230,130,-140,-140,130,-230,-230,-230,,,Raw,SBD,DQ
Jordan McLaughlin,NW,M,M-J,132,120+,275,-290,290,290,200,-220,-220,200,280,300,-310,300,790,Raw,SBD,1
Sean Macphail,YNE,M,M-J,134.8,120+,215,225,232.5,232.5,120,125,130,130,225,235,242.5,242.5,605,Raw,SBD,2
David Cridland,SE,M,M-J,134.5,120+,180,192.5,202.5,202.5,125,132.5,-137.5,132.5,210,220,-225,220,555,Raw,SBD,3
Jack Powell,SE,M,M-J,142.5,120+,195,210,217.5,217.5,112.5,120,-122.5,120,205,-217.5,-220,205,542.5,Raw,SBD,4
Jamila Digankar,NW,F,F-SJ,41.1,43,57.5,60,-62.5,60,25,27.5,-30,27.5,65,70,-72.5,70,157.5,Raw,SBD,1
Jennifer Lima Hancock,SW,F,F-SJ,55.5,57,50,55,60,60,35,37.5,40,40,80,87.5,92.5,92.5,192.5,Raw,SBD,1
Lucy Rayner,SW,F,F-SJ,62.6,63,105,112.5,-118,112.5,75,80,85,85,110,120,125,125,322.5,Raw,SBD,1
Alison Horne,Scot,F,F-SJ,59.2,63,90,95,100,100,57.5,60,-62.5,60,125,130,-140,130,290,Raw,SBD,2
Danielle Broom,SW,F,F-SJ,66.6,72,80,90,100,100,45,50,52.5,52.5,-115,115,125,125,277.5,Raw,SBD,1
Abigail McLean,NI,F,F-SJ,77.2,84,120,127.5,132.5,132.5,65,70,-75.5,70,165,-175,175,175,377.5,Raw,SBD,1
Emily Pizeslak,GL,F,F-J,46.6,47,65,70,72.5,72.5,45,-50,-50,45,90,100,105,105,222.5,Raw,SBD,1
Joy Nnamani,GL,F,F-J,51.5,52,117.5,125,,125,55,60,65,65,-165,-165,165,165,355,Raw,SBD,1
Anastasia Dharma,GL,F,F-J,50.3,52,87.5,95,-100,95,40,47.5,50,50,117.5,-122.5,122.5,122.5,267.5,Raw,SBD,2
Ruth Holloway,SM,F,F-J,49.2,52,75,80,82.5,82.5,47.5,52.5,55,55,85,90,-95,90,227.5,Raw,SBD,3
Alice Hogg,Scot,F,F-J,55.6,57,102.5,112.5,-117.5,112.5,55,60,62.5,62.5,135,142.5,145,145,320,Raw,SBD,1
Sophie Walker,SW,F,F-J,52.6,57,112.5,118,-120,118,65,-70,-70,65,135,-140,-140,135,318,Raw,SBD,2
Catherine Smith,WM,F,F-J,53.9,57,92.5,100,-102.5,100,52.5,-57.5,-57.5,52.5,140,152.5,160,160,312.5,Raw,SBD,3
Hannah Chan,GL,F,F-J,57,57,102.5,110,112.5,112.5,57.5,-60,60,60,122.5,132.5,-140,132.5,305,Raw,SBD,4
Molly Gray,Scot,F,F-J,55,57,-97.5,97.5,-105,97.5,55,-60,-60,55,130,140,147.5,147.5,300,Raw,SBD,5
Maria Andrews,NW,F,F-J,55.6,57,95,105,110,110,50,55,-57.5,55,115,125,135,135,300,Raw,SBD,6
Susie Butler,SW,F,F-J,56.3,57,95,100,-105,100,57.5,62.5,-65,62.5,120,125,-130,125,287.5,Raw,SBD,7
Leeza Watts,NW,F,F-J,56.2,57,80,87.5,-92.5,87.5,52.5,-55,55,55,100,107.5,115,115,257.5,Raw,SBD,8
Gursharon Shergill,SE,F,F-J,56.5,57,70,75,77.5,77.5,-42.5,42.5,45,45,117.5,122.5,127.5,127.5,250,Raw,SBD,9
Shannon Clifford,NW,F,F-J,58.2,63,107.5,115,-120,115,55,57.5,-60,57.5,135,142.5,-150,142.5,315,Raw,SBD,1
Eve Fordyce,Scot,F,F-J,62.8,63,80,90,100,100,55,-60,-60,55,140,150,-157.5,150,305,Raw,SBD,2
Katherine Keddie,Scot,F,F-J,60.8,63,95,100,-105,100,55,60,-62.5,60,110,122.5,-132.5,122.5,282.5,Raw,SBD,3
Jennifer Newton,Scot,F,F-J,61.9,63,85,95,-100,95,45,50,-55,50,110,120,-130,120,265,Raw,SBD,4
Hannah Cross,GL,F,F-J,61.5,63,85,90,95,95,-40,40,-45,40,90,100,107.5,107.5,242.5,Raw,SBD,5
Ylva Von Wright,Scot,F,F-J,61.2,63,-75,-75,75,75,45,50,-55,50,90,105,112.5,112.5,237.5,Raw,SBD,6
Robyn Bagwell,SW,F,F-J,62.2,63,-85,-85,-85,,,,,,,,,,,Raw,SBD,DQ
Amy Spencer,Wales,F,F-J,68.7,72,122.5,-130,-130,122.5,65,70,-72.5,70,135,142.5,-147.5,142.5,335,Raw,SBD,1
Sophie Barringer,Scot,F,F-J,69,72,102.5,110,115,115,45,50,52.5,52.5,150,160,165,165,332.5,Raw,SBD,2
Rhiannon Edwards,Wales,F,F-J,65.6,72,110,117.5,122.5,122.5,62.5,67.5,-70,67.5,127.5,135,-137.5,135,325,Raw,SBD,3
Megan Davies,SW,F,F-J,69.4,72,105,110,-112.5,110,57.5,62.5,-65,62.5,140,-147.5,147.5,147.5,320,Raw,SBD,4
Rosie Howerd,SE,F,F-J,70.4,72,115,-122.5,-122.5,115,-60,60,-62.5,60,135,140,145,145,320,Raw,SBD,5
Nina Lepaus,Scot,F,F-J,65.4,72,80,90,100,100,45,50,52.5,52.5,130,140,150,150,302.5,Raw,SBD,6
Leigh Wetheridge,SE,F,F-J,91.6,84+,140,150,157.5,157.5,-80,80,82.5,82.5,180,185,190,190,430,Raw,SBD,1
Charlie Chester,SW,F,F-J,90.4,84+,155,160,-165.5,160,72.5,77.5,80,80,167.5,175,185,185,425,Raw,SBD,2
