Place,Name,BirthYear,WeightClassKg,BodyweightKg,Country,Best3BenchKg,TotalKg,Sex,Division,Event,Equipment
1,Dina Nowka,1956,52,51.2,GER,70,70,F,Masters 1,B,Single-ply
2,Bernadet Andreani,1958,52,51.8,FRA,67.5,67.5,F,Masters 1,B,Single-ply
3,Aira Knutars,1954,52,50.9,FIN,65,65,F,Masters 1,B,Single-ply
1,Pirkko Hermansson,1958,56,54.6,FIN,75,75,F,Masters 1,B,Single-ply
1,Luba Belova,1960,60,58.8,BLR,110,110,F,Masters 1,B,Single-ply
2,Daniele Taret,1958,60,56.8,FRA,82.5,82.5,F,Masters 1,B,Single-ply
1,Ursula Häuser,1960,67.5,66.2,GER,92.5,92.5,F,Masters 1,B,Single-ply
2,Gundu Staratschek,1953,67.5,65.2,GER,77.5,77.5,F,Masters 1,B,Single-ply
3,Inkeri Malassu,1958,67.5,62.5,FIN,70,70,F,Masters 1,B,Single-ply
1,Evelyne Herbin,1956,75,68.4,FRA,85,85,F,Masters 1,B,Single-ply
2,Elena Ivalene,1960,75,70.9,LAT,70,70,F,Masters 1,B,Single-ply
1,Eva Speth,1954,82.5,81.6,GER,105,105,F,Masters 1,B,Single-ply
1,Françoise Heligon,1943,48,47.4,FRA,62.5,62.5,F,Masters 2,B,Single-ply
2,Seija Turunen,1947,48,47.4,FIN,50,50,F,Masters 2,B,Single-ply
1,Carmen Genermont,1948,52,50.2,FRA,52.5,52.5,F,Masters 2,B,Single-ply
2,Britta Merten,1939,52,51.3,GER,52.5,52.5,F,Masters 2,B,Single-ply
1,Dagmar Wang,1948,56,53.4,AUT,82.5,82.5,F,Masters 2,B,Single-ply
2,Eila Kumpuniemi,1942,56,55.6,FIN,67.5,67.5,F,Masters 2,B,Single-ply
1,Ursula Nothnagel,1936,60,59.5,GER,60,60,F,Masters 2,B,Single-ply
2,Christel Schubert,1945,60,56.8,GER,45,45,F,Masters 2,B,Single-ply
1,Anita Thimm,1950,67.5,60.8,GER,80,80,F,Masters 2,B,Single-ply
2,Ilona Hansen,1949,67.5,60.2,GER,70,70,F,Masters 2,B,Single-ply
1,Renate Spiegel,1939,75,72.3,GER,70,70,F,Masters 2,B,Single-ply
1,Matthias Fröhlich,1960,52,51.5,GER,115,115,M,Masters 1,B,Single-ply
2,Manfred Gilgert,1959,52,49.9,GER,67.5,67.5,M,Masters 1,B,Single-ply
3,Igor Poliakov,1959,52,50.8,EST,60,60,M,Masters 1,B,Single-ply
1,Cestlaw Kendziora,1951,56,56,POL,112.5,112.5,M,Masters 1,B,Single-ply
1,Henry Hellmich,1956,60,58.8,GER,120,120,M,Masters 1,B,Single-ply
2,Joachim Lietzau,1950,60,59.3,GER,110,110,M,Masters 1,B,Single-ply
1,Pekka Kihlström,1959,67.5,66.8,SWE,150,150,M,Masters 1,B,Single-ply
2,Raimo Kyheröinen,1952,67.5,67.1,FIN,150,150,M,Masters 1,B,Single-ply
3,Zia Mirza,1956,67.5,65.6,GBR,140,140,M,Masters 1,B,Single-ply
4,Magnar Midtbø,1959,67.5,66.8,NOR,132.5,132.5,M,Masters 1,B,Single-ply
5,Jozsef Kapor,1951,67.5,66.8,HUN,125,125,M,Masters 1,B,Single-ply
6,Pauli Töllikkö,1957,67.5,61.9,FIN,100,100,M,Masters 1,B,Single-ply
1,Didier Compain,1959,75,74.6,FRA,187.5,187.5,M,Masters 1,B,Single-ply
2,Frank Heinrich,1958,75,74.4,GER,170,170,M,Masters 1,B,Single-ply
3,Jari Friis,1954,75,74.4,FIN,155,155,M,Masters 1,B,Single-ply
4,Lars Jansson,1956,75,74.4,SWE,147.5,147.5,M,Masters 1,B,Single-ply
5,Kolt Taul,1954,75,73.5,EST,140,140,M,Masters 1,B,Single-ply
6,Raymond Fixmer,1958,75,73.2,LUX,137.5,137.5,M,Masters 1,B,Single-ply
7,Lars Midtbø,1956,75,73.9,NOR,132.5,132.5,M,Masters 1,B,Single-ply
DQ,Guseins Eldavaros,1958,75,73.8,LAT,,,M,Masters 1,B,Single-ply
DQ,Ilkka Kekkonen,1957,75,74.2,FIN,,,M,Masters 1,B,Single-ply
1,Peter Sundmann,1956,82.5,82.3,FIN,190,190,M,Masters 1,B,Single-ply
2,Michae Winklareth,1956,82.5,80.1,GER,182.5,182.5,M,Masters 1,B,Single-ply
3,Vladimir Volkov,1959,82.5,82.4,RUS,170,170,M,Masters 1,B,Single-ply
4,Olli Rantanen,1956,82.5,81.6,FIN,167.5,167.5,M,Masters 1,B,Single-ply
6,Herve Varotto,1960,82.5,79.4,FRA,160,160,M,Masters 1,B,Single-ply
7,Max Rasmussen,1957,82.5,81.1,GBR,160,160,M,Masters 1,B,Single-ply
8,Peter Wittboldt,1959,82.5,82,SWE,155,155,M,Masters 1,B,Single-ply
DQ,Herbert Sattler,1954,82.5,81.1,AUT,,,M,Masters 1,B,Single-ply
1,Arthur Hirner,1957,90,88.8,GER,210,210,M,Masters 1,B,Single-ply
2,Pascal Pares,1958,90,86.5,FRA,200,200,M,Masters 1,B,Single-ply
3,Pertti Kortesalmi,1959,90,88.7,FIN,192.5,192.5,M,Masters 1,B,Single-ply
4,Mag.Johann Müller,1953,90,89.5,AUT,190,190,M,Masters 1,B,Single-ply
5,Rüdiger Hopp,1955,90,89.3,SWE,187.5,187.5,M,Masters 1,B,Single-ply
6,Lothar Pritzl,1959,90,88.7,GER,185,185,M,Masters 1,B,Single-ply
1,Jerzy Furmanek,1952,100,99.1,POL,225,225,M,Masters 1,B,Single-ply
2,Fred Riede,1955,100,95.1,GER,207.5,207.5,M,Masters 1,B,Single-ply
3,Jean-Pierre Aymon,1954,100,97.7,SUI,207.5,207.5,M,Masters 1,B,Single-ply
4,Hannu Eskola,1954,100,95.8,FIN,200,200,M,Masters 1,B,Single-ply
5,John Brookes,1955,100,97.8,GBR,200,200,M,Masters 1,B,Single-ply
6,Viktor Tkatsenko,1959,100,97.8,EST,197.5,197.5,M,Masters 1,B,Single-ply
7,Stanislas Couchy,1953,100,90.6,FRA,195,195,M,Masters 1,B,Single-ply
8,Jerzy Chlechowicz,1955,100,90.9,POL,195,195,M,Masters 1,B,Single-ply
9,Romain Makil,1958,100,99.3,LUX,185,185,M,Masters 1,B,Single-ply
1,Siarhei Kavaliov,1952,110,103.5,BLR,220,220,M,Masters 1,B,Single-ply
2,Fred Jahnke,1957,110,106.8,GER,210,210,M,Masters 1,B,Single-ply
3,Jozef Kwiek,1958,110,100.5,POL,205,205,M,Masters 1,B,Single-ply
4,Loretto DeLuca,1958,110,104.9,SUI,205,205,M,Masters 1,B,Single-ply
5,Kauko Savonen,1957,110,107.3,FIN,202.5,202.5,M,Masters 1,B,Single-ply
6,David Brooks,1959,110,108.8,GBR,202.5,202.5,M,Masters 1,B,Single-ply
7,Julian Massey,1956,110,105.7,GBR,150,150,M,Masters 1,B,Single-ply
1,Truls Nygaard,1956,125,124.5,NOR,210,210,M,Masters 1,B,Single-ply
2,Alain Hammang,1950,125,117.1,LUX,205,205,M,Masters 1,B,Single-ply
3,Kari Vilppola,1955,125,111.8,FIN,200,200,M,Masters 1,B,Single-ply
4,Anton Speth,1955,125,115.7,GER,200,200,M,Masters 1,B,Single-ply
1,Tibor Bak,1957,125+,128.6,HUN,235,235,M,Masters 1,B,Single-ply
2,Piotr Pawlik,1955,125+,125.7,POL,232.5,232.5,M,Masters 1,B,Single-ply
3,Raimo Avila,1955,125+,125.3,FIN,190,190,M,Masters 1,B,Single-ply
4,Roy Simon,1958,125+,177.8,GBR,190,190,M,Masters 1,B,Single-ply
1,Pierre Gallart,1944,56,55.1,FRA,122.5,122.5,M,Masters 2,B,Single-ply
1,Burkhard Steffen,1950,60,59.8,GER,112.5,112.5,M,Masters 2,B,Single-ply
2,Rainer Geese,1943,60,59.1,GER,107.5,107.5,M,Masters 2,B,Single-ply
1,Juha Inkinen,1946,67.5,66.8,FIN,135,135,M,Masters 2,B,Single-ply
2,Oleg Furseev,1946,67.5,67,BLR,132.5,132.5,M,Masters 2,B,Single-ply
3,Börje Eriksson,1942,67.5,66.1,SWE,130,130,M,Masters 2,B,Single-ply
4,Timo Manninen,1948,67.5,66.5,FIN,130,130,M,Masters 2,B,Single-ply
1,Allan Eriksson,1946,75,73.4,SWE,152.5,152.5,M,Masters 2,B,Single-ply
2,Friedric Kulhanek,1947,75,74.5,AUT,150,150,M,Masters 2,B,Single-ply
3,Attila Jaloweczky,1947,75,74.9,HUN,145,145,M,Masters 2,B,Single-ply
4,Stan Maerow,1949,75,72,GBR,140,140,M,Masters 2,B,Single-ply
5,Franticak Skocek,1944,75,73.5,CZE,140,140,M,Masters 2,B,Single-ply
6,Janis Pavluks,1946,75,72.9,LAT,137.5,137.5,M,Masters 2,B,Single-ply
7,Risto Salonen,1948,75,73.9,FIN,135,135,M,Masters 2,B,Single-ply
8,Seppo Tiri,1939,75,74.6,FIN,135,135,M,Masters 2,B,Single-ply
1,Louis Escolano,1945,82.5,81.3,FRA,170,170,M,Masters 2,B,Single-ply
2,Taiso Paananen,1949,82.5,79.2,FIN,167.5,167.5,M,Masters 2,B,Single-ply
3,Joseph Guerrero,1943,82.5,79.9,FRA,160,160,M,Masters 2,B,Single-ply
4,Edmund Lechowicz,1949,82.5,81.8,POL,160,160,M,Masters 2,B,Single-ply
5,Niilo Tarvainen,1940,82.5,79.8,FIN,155,155,M,Masters 2,B,Single-ply
6,Ketil Hodne,1947,82.5,80.9,NOR,120,120,M,Masters 2,B,Single-ply
1,Vladimir Halavach,1950,90,89.3,BLR,182.5,182.5,M,Masters 2,B,Single-ply
2,Usko Paananen,1948,90,88.6,SWE,170,170,M,Masters 2,B,Single-ply
3,Kari Mattila,1945,90,88.7,SWE,135,135,M,Masters 2,B,Single-ply
4,Reino Ratilainen,1945,90,83.7,FIN,112.5,112.5,M,Masters 2,B,Single-ply
5,Wolfgang Kolditz,1940,90,88.6,GER,105,105,M,Masters 2,B,Single-ply
1,Roland Schubert,1940,100,96.2,GER,195,195,M,Masters 2,B,Single-ply
2,Joseph Dieghi,1949,100,97.6,FRA,190,190,M,Masters 2,B,Single-ply
3,Rüdiger Schrör,1943,100,97.3,GER,160,160,M,Masters 2,B,Single-ply
4,Bernie Morris,1938,100,96.8,GBR,140,140,M,Masters 2,B,Single-ply
1,Seppo Mikkola,1947,110,105.9,FIN,195,195,M,Masters 2,B,Single-ply
2,Joseph Teslar,1949,110,103.7,SVK,185,185,M,Masters 2,B,Single-ply
3,Esa Leskinen,1950,110,107,FIN,60,60,M,Masters 2,B,Single-ply
1,Mauno Kontto,1941,125,123.5,FIN,187.5,187.5,M,Masters 2,B,Single-ply
2,Anatol Petrov,1950,125,118.1,EST,185,185,M,Masters 2,B,Single-ply
3,Egil Engebretsen,1939,125,111.2,NOR,175,175,M,Masters 2,B,Single-ply
4,Valdis Alksnitis,1941,125,119.6,LAT,160,160,M,Masters 2,B,Single-ply
1,Päiviö Säätelä,1936,125+,128.4,FIN,187.5,187.5,M,Masters 2,B,Single-ply
2,Eduard Dobrõi,1941,125+,140.7,EST,170,170,M,Masters 2,B,Single-ply
3,Georg Boström,1947,125+,125.1,SWE,135,135,M,Masters 2,B,Single-ply
