Place,Equipment,Event,Sex,Tested,WeightClassKg,Name,CyrillicName,BirthDay,BodyweightKg,Squat1Kg,Squat2Kg,Squat3Kg,Squat4Kg,Best3SquatKg,Bench1Kg,Bench2Kg,Bench3Kg,Bench4Kg,Best3BenchKg,Deadlift1Kg,Deadlift2Kg,Deadlift3Kg,Deadlift4Kg,Best3DeadliftKg,TotalKg
3,Wraps,SBD,F,Yes,56,Margarita Vorobeva,Маргарита Воробьева,1994-07-29,55.5,60,-70,-70,,60,-35,35,37.5,,37.5,75,-90,90,,90,187.5
,Wraps,SBD,F,Yes,56,Viktoriya Muravlyova,Виктория Муравлёва,1995-06-11,46.9,35,45,50,,50,20,-25,25,,25,50,67.5,72.5,,72.5,147.5
2,Wraps,SBD,F,Yes,56,Darya Spirina,Дарья Спирина,1995-01-20,50.1,80,-90,-90,,80,40,45,-50,,45,100,110,115,,115,240
1,Wraps,SBD,F,Yes,56,Yuliana Krupova,Юлиана Крупова,1984-09-10,56,95,-105,105,,105,55,60,62.5,,62.5,117.5,122.5,127.5,,127.5,295
1,Wraps,SBD,F,Yes,67.5,Tatyana Peremyshlina,Татьяна Перемышлина,1992-03-10,64.3,50,60,65,,65,30,40,-45,,40,80,90,-100,,90,195
1,Wraps,SBD,M,Yes,60,Mikhail Semenikhin,Михаил Семенихин,1995-08-20,60,140,-150,150,,150,90,-95,100,,100,140,145,155,,155,405
1,Wraps,SBD,M,Yes,67.5,Anton Kuznetsov,Антон Кузнецов,1994-08-27,61.3,90,-95,100,,100,82.5,85,-87.5,,85,110,-115,115,,115,300
1,Wraps,SBD,M,Yes,75,Denis Gvozdev,Денис Гвоздев,1995-05-22,69.8,-100,105,110,,110,95,-100,-100,,95,-140,145,-150,,145,350
3,Wraps,SBD,M,Yes,82.5,Sergey Nikonorov,Сергей Никоноров,1994-04-14,82.5,-120,-135,135,,135,90,102.5,-107.5,,102.5,140,155,160,,160,397.5
2,Wraps,SBD,M,Yes,82.5,Sergey Pechatkin,Сергей Печаткин,1993-01-09,79.6,145,155,160,,160,100,105,107.5,,107.5,190,195,-197.5,,195,462.5
1,Wraps,SBD,M,Yes,82.5,Ivan Oreshkin,Иван Орешкин,1993-05-06,81.8,155,165,175,,175,122.5,130,135,,135,180,200,212.5,,212.5,522.5
3,Wraps,SBD,M,Yes,90,Igor Arkhipenko,Игорь Архипенко,1996-05-04,85.9,-130,130,140,,140,80,-90,95,,95,110,-130,-130,,110,345
2,Wraps,SBD,M,Yes,90,Dmitriy Sazanov,Дмитрий Сазанов,1993-08-18,85.6,150,167.5,180,,180,115,122.5,-127.5,,122.5,205,220,230,,230,532.5
1,Wraps,SBD,M,Yes,90,Aleksey Zotov,Алексей Зотов,1989-03-26,89.3,195,205,-207.5,,205,-147.5,147.5,152.5,,152.5,240,255,-262.5,,255,612.5
1,Wraps,SBD,M,Yes,100,Ildar Yagudin,Ильдар Ягудин,1993-04-24,98.9,175,-185,190,,190,135,145,150,,150,210,220,-230,,220,560
1,Wraps,SBD,M,Yes,60,Elmir Tarverdiev,Эльмир Тарвердиев,1983-07-09,59.9,150,-165,165,,165,100,110,,,110,200,-215,-215,,200,475
1,Wraps,SBD,M,Yes,67.5,Pavel Vedeneev,Павел Веденеев,1987-12-14,63.2,150,155,160,,160,90,95,100,,100,190,-195,195,,195,455
DQ,Wraps,SBD,M,Yes,82.5,Roman Smolyarov,Роман Смоляров,1977-11-22,79.9,-90,-100,-100,,,,,,,,,,,,,
1,Wraps,SBD,M,Yes,100,Oleg Musatkin,Олег Мусаткин,1967-08-07,99.1,200,215,230,,230,125,135,140,,140,250,265,282.5,,282.5,652.5
2,Wraps,SBD,M,Yes,100,Valeriy Markashov,Валерий Маркашов,1952-07-18,99.3,130,140,150,,150,90,97.5,100,,100,140,150,160,,160,410
1,Wraps,SBD,M,Yes,100,Oleg Musatkin,Олег Мусаткин,1967-08-07,99.1,200,215,230,,230,125,135,140,,140,250,265,282.5,,282.5,652.5
2,Multi-ply,SBD,F,Yes,67.5,Inna Myagkova,Инна Мягкова,1995-09-21,67.4,100,110,-130,,110,65,-70,70,,70,100,-110,110,,110,290
1,Multi-ply,SBD,F,Yes,67.5,Vasilina Avdeenko,Василина Авдеенко,1983-08-19,67.45,165,-180,190,200,190,40,60,70,,70,102.5,120,140,,140,400
2,Multi-ply,SBD,M,Yes,75,Sergey Levchenko,Сергей Левченко,1992-11-17,74,200,220,232.5,,232.5,140,145,-150,,145,-210,210,-232.5,,210,587.5
1,Multi-ply,SBD,M,Yes,75,Valentin Chuvashkin,Валентин Чувашкин,1990-05-11,75,255,270,290,,290,120,140,150,,150,210,230,240,-250.5,240,680
1,Multi-ply,SBD,M,Yes,82.5,Vladimir Konkin,Владимир Конкин,1989-06-21,81.5,282.5,-297.5,297.5,,297.5,160,167.5,170,,170,200,207.5,212.5,,212.5,680
1,Multi-ply,SBD,M,Yes,67.5,Rustam Vagif Ogly Musaev,Рустам Вагиф Оглы Мусаев,1978-09-08,67,255,267.5,280,,280,65,,,,65,235,-246,-246,,235,580
2,Multi-ply,SBD,M,Yes,75,Sergey Levchenko,Сергей Левченко,1992-11-17,74,200,220,232.5,,232.5,140,145,-150,,145,-210,210,-232.5,,210,587.5
1,Multi-ply,SBD,M,Yes,75,Valentin Chuvashkin,Валентин Чувашкин,1990-05-11,75,255,270,290,,290,120,140,150,,150,210,230,240,-250.5,240,680
1,Multi-ply,SBD,M,Yes,82.5,Vladimir Konkin,Владимир Конкин,1989-06-21,81.5,282.5,-297.5,297.5,,297.5,160,167.5,170,,170,200,207.5,212.5,,212.5,680
DQ,Multi-ply,SBD,M,Yes,90,Aleksey Zharikov,Алексей Жариков,1971-02-19,85.2,-250,-260,-270,270,,170,180,185,,185,230,240,-250,,240,
1,Multi-ply,SBD,M,Yes,110+,Pavel Shcheglov,Павел Щеглов,1978-07-18,127.1,310,325,340,,340,220,232.5,-240.5,,232.5,-245,245,-260,,245,817.5
3,Raw,B,F,Yes,56,Maryana Avdeenko,Марьяна Авдеенко,2004-01-01,34,,,,,,20,22.5,-25,,22.5,,,,,,22.5
2,Raw,B,F,Yes,56,Darya Spirina,Дарья Спирина,1995-01-20,50.1,,,,,,40,45,-50,,45,,,,,,45
1,Raw,B,F,Yes,56,Tatyana Kulagina,Татьяна Кулагина,1972-12-11,55.3,,,,,,72.5,77.5,-80,80,77.5,,,,,,77.5
1,Raw,B,F,Yes,60,Darya Kovalyova,Дарья Ковалёва,1995-10-27,59.3,,,,,,35,40,-42.5,,40,,,,,,40
2,Raw,B,M,Yes,60,Nikita Bushtets,Никита Буштец,1993-11-30,60,,,,,,-77.5,-77.5,77.5,,77.5,,,,,,77.5
3,Raw,B,M,Yes,60,Sos Adamyan,Сос Адамян,1996-09-02,59.9,,,,,,70,75,-80,,75,,,,,,75
1,Raw,B,M,Yes,60,Ilya Lysenko,Илья Лысенко,1994-07-15,58.3,,,,,,77.5,85,-90,,85,,,,,,85
3,Raw,B,M,Yes,67.5,Anton Kuznetsov,Антон Кузнецов,1994-08-27,61.6,,,,,,-80,82.5,85,,85,,,,,,85
2,Raw,B,M,Yes,67.5,Sergey Chugurov,Сергей Чугуров,1993-06-22,66.6,,,,,,110,115,-120,,115,,,,,,115
1,Raw,B,M,Yes,67.5,Petr Ivanov,Петр Иванов,1990-03-13,67.5,,,,,,120,125,130,,130,,,,,,130
4,Raw,B,M,Yes,75,Dmitriy Zagrebin,Дмитрий Загребин,1996-07-28,70.9,,,,,,70,82.5,87.5,,87.5,,,,,,87.5
3,Raw,B,M,Yes,75,Artem Kaipov,Артем Каипов,1994-12-09,72.6,,,,,,105,110,-117.5,,110,,,,,,110
2,Raw,B,M,Yes,75,Valeriy Yurin,Валерий Юрин,1990-01-12,72.4,,,,,,112.5,-117.5,117.5,,117.5,,,,,,117.5
1,Raw,B,M,Yes,75,Aleksandr Sergeev,Александр Сергеев,1994-04-24,72.9,,,,,,110,125,130,,130,,,,,,130
3,Raw,B,M,Yes,82.5,Andrey Ashikhmin,Андрей Ашихмин,1991-07-14,81.1,,,,,,100,107.5,112.5,,112.5,,,,,,112.5
2,Raw,B,M,Yes,82.5,Arseniy Kruming,Арсений Круминг,1995-08-02,79.3,,,,,,100,110,115,,115,,,,,,115
1,Raw,B,M,Yes,82.5,Vladislav Ushenin,Владислав Ушенин,1989-09-05,82.2,,,,,,132.5,137.5,145,,145,,,,,,145
1,Raw,B,M,Yes,90,Igor Arkhipenko,Игорь Архипенко,1996-09-04,85.1,,,,,,80,90,-95,,90,,,,,,90
1,Raw,B,M,Yes,100,Ruslan Poddubnyy,Руслан Поддубный,1993-02-19,94.1,,,,,,135,145,152.5,,152.5,,,,,,152.5
1,Raw,B,M,Yes,110,Dmitriy Medvedkov,Дмитрий Медведков,1987-04-08,106.9,,,,,,160,-167.5,-167.5,,160,,,,,,160
1,Raw,B,M,Yes,75,Sergey Malkov,Сергей Мальков,1984-01-03,72.3,,,,,,120,130,140,,140,,,,,,140
1,Raw,B,M,Yes,82.5,Mikhail Kirichenko,Михаил Кириченко,1985-06-08,80.4,,,,,,137.5,145,150,,150,,,,,,150
2,Raw,B,M,Yes,90,Vladimir Volkolupov,Владимир Волколупов,1983-06-23,83.4,,,,,,-125,130,137.5,,137.5,,,,,,137.5
1,Raw,B,M,Yes,90,Andrey Kirindyasov,Андрей Кириндясов,1988-03-20,90,,,,,,140,155,162.5,,162.5,,,,,,162.5
1,Raw,B,M,Yes,110,Eduard Shepelev,Эдуард Шепелев,1966-11-19,108.7,,,,,,140,-150,152.5,,152.5,,,,,,152.5
2,Raw,B,M,Yes,82.5,Dmitriy Ivashechkin,Дмитрий Ивашечкин,1971-01-04,81.1,,,,,,120,127.5,132.5,,132.5,,,,,,132.5
1,Raw,B,M,Yes,82.5,Dmitriy Trofimov,Дмитрий Трофимов,1972-09-12,77.1,,,,,,125,135,137.5,,137.5,,,,,,137.5
1,Raw,B,M,Yes,100,Sergey Kolesnik,Сергей Колесник,1971-01-27,94.8,,,,,,-130,140,142.5,,142.5,,,,,,142.5
2,Raw,B,M,Yes,100,Valeriy Markashov,Валерий Маркашов,1952-07-18,99.3,,,,,,90,97.5,100,,100,,,,,,100
1,Raw,B,M,Yes,110+,Maksim Nosal,Максим Носаль,1971-08-21,115.1,,,,,,145,-155,155,,155,,,,,,155
1,Multi-ply,B,F,Yes,67.5,Inna Myagkova,Инна Мягкова,1995-09-21,67.5,,,,,,60,67.5,-75,,67.5,,,,,,67.5
1,Multi-ply,B,M,Yes,75,Sergey Levchenko,Сергей Левченко,1992-11-17,74,,,,,,140,-150,-150,,140,,,,,,140
DQ,Multi-ply,B,M,Yes,75,Vladimir Parshunin,Владимир Паршунин,1991-08-31,73.5,,,,,,-160,-160,-160,,,,,,,,
1,Multi-ply,B,M,Yes,82.5,Vladimir Konkin,Владимир Конкин,1989-06-21,81.5,,,,,,160,,,,160,,,,,,160
1,Multi-ply,B,M,Yes,90,Aleksey Zharikov,Алексей Жариков,1971-02-19,85.2,,,,,,-180,180,190,,190,,,,,,190
DQ,Wraps,SBD,F,No,56,Yana Dobrynina,Яна Добрынина,1994-04-19,45.5,-45,-47.5,-50,,,-37.5,-37.5,-37.5,,,-65,,,,,
1,Wraps,SBD,F,No,60,Olesya Sinelnikova,Олеся Синельникова,1993-11-20,56.5,80,90,-97.5,,90,50,55,60,,60,90,100,110,,110,260
2,Wraps,SBD,M,No,60,Andrey Zhigalin,Андрей Жигалин,1997-01-24,60,95,-105,-105,,95,-65,70,-77.5,,70,100,110,-115,,110,275
1,Wraps,SBD,M,No,60,Aleksandr Sadchikov,Александр Садчиков,1996-11-12,58.7,107.5,115,120,,120,77.5,-87.5,-87.5,,77.5,110,115,120,,120,317.5
1,Wraps,SBD,M,No,67.5,Ivan Ryazantsev,Иван Рязанцев,1991-04-18,67.5,100,110,-115,,110,100,110,-115,,110,150,160,170,,170,390
1,Wraps,SBD,M,No,75,David Sarkisyan,Давид Саркисян,1990-05-21,72.2,160,-170,,,160,90,102.5,110,,110,180,192.5,-200,,192.5,462.5
2,Wraps,SBD,M,No,82.5,Vitaliy Kashin,Виталий Кашин,1995-07-25,77,140,155,-160,,155,85,90,100,,100,150,-160,-160,,150,405
3,Wraps,SBD,M,No,82.5,Dmitriy Shelestunov,Дмитрий Шелестунов,1994-04-20,80.3,140,155,-160,,155,85,90,97.5,,97.5,150,-160,-165,,150,402.5
1,Wraps,SBD,M,No,82.5,Dmitriy Rastorguev,Дмитрий Расторгуев,1993-12-18,82.2,200,212.5,-220,,212.5,130,140,145,,145,200,212.5,220,,220,577.5
1,Wraps,SBD,M,No,90,Bogdan Shemakin,Богдан Шемакин,1994-07-26,88.2,160,175,185,,185,140,155,-160,,155,200,217.5,225,,225,565
2,Wraps,SBD,M,No,90,Evgeniy Tsvetkov,Евгений Цветков,1994-06-13,88.2,170,185,195,,195,130,140,-145,,140,200,217.5,-230,,217.5,552.5
1,Wraps,SBD,M,No,100,Ruslan Izmaylov,Руслан Измайлов,1995-08-26,100,-150,-150,150,,150,67.5,70,75,,75,150,160,170,,170,395
1,Wraps,SBD,M,No,75,Aleksandr Koshelev #1,Александр Кошелев,1987-06-01,73.3,170,180,190,,190,115,120,-125,,120,220,-230,,,220,530
1,Wraps,SBD,M,No,90,Ivan Ivanov,Иван Иванов,1988-07-30,88.8,260,270,280,,280,150,160,-170,,160,230,250,270,,270,710
3,Wraps,SBD,M,No,90,Anatoliy Karavaev,Анатолий Караваев,1977-11-15,85.1,145,155,160,,160,110,117.5,-125,,117.5,170,-180,-180,,170,447.5
2,Wraps,SBD,M,No,90,Vladimir Epifanov,Владимир Епифанов,1970-09-27,88.8,170,-185,185,,185,120,130,135,,135,210,-220,225,,225,545
1,Wraps,SBD,M,No,90,Vladimir Epifanov,Владимир Епифанов,1970-09-27,88.8,170,-185,185,,185,120,130,135,,135,210,-220,225,,225,545
1,Multi-ply,SBD,M,No,60,Sergey Zlobin,Сергей Злобин,1991-08-27,51,115,130,-145,,130,75,-87.5,,,75,120,135,140,,140,345
1,Multi-ply,SBD,M,No,75,Ivan Semenikhin,Иван Семенихин,1991-03-30,74.5,-250,250,,,250,185,-195,-200,,185,120,160,180,,180,615
2,Multi-ply,SBD,M,No,75,Vladimir Avdonin,Владимир Авдонин,1991-01-11,75,210,225,235,,235,130,145,150,,150,200,215,-220,,215,600
1,Multi-ply,SBD,M,No,82.5,Stanislav Feklyunin,Станислав Феклюнин,1995-10-19,78.5,120,140,155,,155,110,120,125,,125,170,180,-202.5,,180,460
2,Multi-ply,SBD,M,No,90,Roman Vitko,Роман Витько,1994-03-10,89.3,140,160,-165,,160,90,95,-105,,95,180,195,200,,200,455
1,Multi-ply,SBD,M,No,90,Nikolay Efremov,Николай Ефремов,1991-12-18,89.8,-260,272.5,285,,285,190,200,-210,,200,260,275,,,275,760
1,Multi-ply,SBD,M,No,75,Ivan Semenikhin,Иван Семенихин,1991-03-30,74.5,-250,250,,,250,185,-195,-200,,185,120,160,180,,180,615
1,Multi-ply,SBD,M,No,90,Ivan Fomintsov,Иван Фоминцов,1987-06-24,87.9,-200,-200,200,,200,160,170,,,170,220,,,,220,590
2,Raw,B,M,No,60,Vyacheslav Sorokin,Вячеслав Сорокин,1998-02-07,54.7,,,,,,55,60,-65,,60,,,,,,60
1,Raw,B,M,No,60,Andrey Fimin,Андрей Фимин,1991-02-06,57.2,,,,,,130,135,140,142.5,140,,,,,,140
1,Raw,B,M,No,67.5,Evgeniy Rogozhin,Евгений Рогожин,1998-04-02,62.7,,,,,,75,80,85,,85,,,,,,85
1,Raw,B,M,No,90,Anton Ivanov,Антон Иванов,1996-04-16,82.9,,,,,,-100,-110,110,,110,,,,,,110
1,Raw,B,M,No,100,Sergey Filkin,Сергей Филькин,1995-05-30,99.2,,,,,,85,90,92.5,,92.5,,,,,,92.5
1,Raw,B,M,No,110+,Kirill Sarychev,Кирилл Сарычев,1989-01-01,150.2,,,,,,290,305,,,305,,,,,,305
1,Raw,B,M,No,60,Igor Vasilchuk,Игорь Васильчук,1987-09-26,55,,,,,,132.5,135,140,142.5,140,,,,,,140
2,Raw,B,M,No,75,Pavel Tarasov,Павел Тарасов,1988-10-02,74.6,,,,,,-92.5,97.5,-105,,97.5,,,,,,97.5
1,Raw,B,M,No,75,Nikolay Zhilin,Николай Жилин,1986-11-23,74,,,,,,-155,155,162.5,,162.5,,,,,,162.5
1,Raw,B,M,No,82.5,Anton Nazarov,Антон Назаров,1984-01-20,79.8,,,,,,175,180,-185,,180,,,,,,180
2,Raw,B,M,No,82.5,Pavel Dvoryadkin,Павел Дворядкин,1986-07-17,82.2,,,,,,140,152.5,160,,160,,,,,,160
4,Raw,B,M,No,90,Evgeniy Smirnov,Евгений Смирнов,1987-09-30,82.7,,,,,,90,105,115,,115,,,,,,115
3,Raw,B,M,No,90,Aleksey Zotov,Алексей Зотов,1984-07-05,88.3,,,,,,140,145,150,,150,,,,,,150
1,Raw,B,M,No,90,Nikolay Upolovnikov,Николай Уполовников,1980-09-14,86.5,,,,,,190,195,197.5,,197.5,,,,,,197.5
2,Raw,B,M,No,90,Andrey Fokin,Андрей Фокин,1982-10-23,88.2,,,,,,175,185,-197.5,,185,,,,,,185
2,Raw,B,M,No,100,Aleksandr Zhukov,Александр Жуков,1983-03-13,99.4,,,,,,115,-135,-135,,115,,,,,,115
1,Raw,B,M,No,100,Aleksey Kunichkin,Алексей Куничкин,1973-04-25,98,,,,,,160,-175,-175,,160,,,,,,160
1,Raw,B,M,No,110,Vyacheslav Rakhmanov,Вячеслав Рахманов,1968-09-10,103,,,,,,200,-210,210,,210,,,,,,210
1,Raw,B,M,No,110+,Kirill Sarychev,Кирилл Сарычев,1989-01-01,150.2,,,,,,290,305,,,305,,,,,,305
1,Raw,B,M,No,110,Vyacheslav Rakhmanov,Вячеслав Рахманов,1968-09-10,103,,,,,,200,-210,210,,210,,,,,,210
2,Raw,B,M,No,110,Viktor Uryadov,Виктор Урядов,1951-12-29,110,,,,,,155,160,165,,165,,,,,,165
1,Multi-ply,B,M,No,60,Sergey Zlobin,Сергей Злобин,1991-08-27,51,,,,,,75,82.5,90,,90,,,,,,90
1,Multi-ply,B,M,No,75,Ivan Semenikhin,Иван Семенихин,1991-03-30,74.5,,,,,,-190,190,207.5,,207.5,,,,,,207.5
1,Multi-ply,B,M,No,82.5,Stanislav Feklyunin,Станислав Феклюнин,1995-10-19,78.5,,,,,,110,120,-125,,120,,,,,,120
1,Multi-ply,B,M,No,75,Ivan Semenikhin,Иван Семенихин,1991-03-30,74.5,,,,,,-190,190,207.5,,207.5,,,,,,207.5
1,Multi-ply,B,M,No,90,Ivan Fomintsov,Иван Фоминцов,1987-06-24,87.9,,,,,,170,-180,-180,,170,,,,,,170
1,Multi-ply,B,M,No,100,Aleksandr Borshchev,Александр Борщев,1986-03-24,98.7,,,,,,250,262.5,267.5,,267.5,,,,,,267.5
2,Multi-ply,B,M,No,100,Sergey Zakharov,Сергей Захаров,1971-07-08,99.5,,,,,,252.5,262.5,-267.5,,262.5,,,,,,262.5
1,Multi-ply,B,M,No,82.5,Pavel Dvoryadkin,Павел Дворядкин,1986-07-17,82.5,,,,,,-180,185,200,,200,,,,,,200
3,Multi-ply,B,M,No,110+,Sergey Alkhov,Сергей Альхов,1984-10-08,123.5,,,,,,205,215,220,,220,,,,,,220
1,Multi-ply,B,M,No,110+,Igor Lyapkov,Игорь Ляпков,1984-12-21,122.1,,,,,,240,255,265,,265,,,,,,265
2,Multi-ply,B,M,No,110+,Aleksandr Ablizin,Александр Аблизин,1973-03-26,150,,,,,,240,260,-270,,260,,,,,,260
1,Multi-ply,B,M,No,100,Aleksandr Bobunov,Александр Бобунов,1972-07-11,99.9,,,,,,175,190,-200,,190,,,,,,190
