Name,Userpage
Alexey Ernandes-Ortega,id197072464
Andrey Belyaev,belyaev_power
Andrey Malanichev,id63945952
Exal Garcia Carrillo,exal_garcia
Konstantin Morozov,hypnoticvk
Marianna Gasparyan,id230319807
Yury Belkin,belkin.power
Zahir Khudayarov,zahirkhudayarov
